{
  "stickers" : [
    {
      "filename" : "9.sticker"
    },
    {
      "filename" : "8.sticker"
    },
    {
      "filename" : "7.sticker"
    },
    {
      "filename" : "6.sticker"
    },
    {
      "filename" : "5.sticker"
    },
    {
      "filename" : "40.sticker"
    },
    {
      "filename" : "4.sticker"
    },
    {
      "filename" : "39.sticker"
    },
    {
      "filename" : "38.sticker"
    },
    {
      "filename" : "37.sticker"
    },
    {
      "filename" : "36.sticker"
    },
    {
      "filename" : "35.sticker"
    },
    {
      "filename" : "34.sticker"
    },
    {
      "filename" : "33.sticker"
    },
    {
      "filename" : "32.sticker"
    },
    {
      "filename" : "31.sticker"
    },
    {
      "filename" : "30.sticker"
    },
    {
      "filename" : "3.sticker"
    },
    {
      "filename" : "29.sticker"
    },
    {
      "filename" : "28.sticker"
    },
    {
      "filename" : "27.sticker"
    },
    {
      "filename" : "26.sticker"
    },
    {
      "filename" : "25.sticker"
    },
    {
      "filename" : "24.sticker"
    },
    {
      "filename" : "23.sticker"
    },
    {
      "filename" : "22.sticker"
    },
    {
      "filename" : "21.sticker"
    },
    {
      "filename" : "20.sticker"
    },
    {
      "filename" : "2.sticker"
    },
    {
      "filename" : "19.sticker"
    },
    {
      "filename" : "18.sticker"
    },
    {
      "filename" : "17.sticker"
    },
    {
      "filename" : "16.sticker"
    },
    {
      "filename" : "15.sticker"
    },
    {
      "filename" : "14.sticker"
    },
    {
      "filename" : "13.sticker"
    },
    {
      "filename" : "12.sticker"
    },
    {
      "filename" : "11.sticker"
    },
    {
      "filename" : "10.sticker"
    },
    {
      "filename" : "1.sticker"
    }
  ],
  "info" : {
    "version" : 1,
    "author" : "xcode"
  },
  "properties" : {
    "grid-size" : "regular"
  }
}